<svg xmlns="http://www.w3.org/2000/svg" width="11" height="19" viewBox="0 0 11 19">
    <path fill="#FFF" fill-rule="nonzero" d="M9.64.004L7.243 0C4.548 0 2.806 1.787 2.806 4.552V6.65H.395a.377.377 0 0 0-.378.377v3.04c0 .21.17.378.378.378h2.411v7.673c0 .208.169.377.377.377H6.33a.377.377 0 0 0 .377-.377v-7.673h2.82a.377.377 0 0 0 .377-.377l.001-3.041a.378.378 0 0 0-.377-.377H6.707V4.87c0-.855.204-1.289 1.318-1.289H9.64a.377.377 0 0 0 .377-.377V.38a.377.377 0 0 0-.376-.377z"/>
</svg>
