<svg xmlns="http://www.w3.org/2000/svg" width="14" height="16" viewBox="0 0 14 16">
    <defs>
        <linearGradient id="a" x1="100%" x2="0%" y1="50%" y2="50%">
            <stop offset="0%" stop-color="#FE6F41"/>
            <stop offset="100%" stop-color="#FFCD78"/>
        </linearGradient>
    </defs>
    <path fill="url(#a)" fill-rule="nonzero" d="M6.73 7.383A3.691 3.691 0 1 1 6.73 0a3.691 3.691 0 0 1 0 7.383zm0 1.846a6.69 6.69 0 0 1 6.69 6.69H.038A6.69 6.69 0 0 1 6.73 9.23z"/>
</svg>
