<svg xmlns="http://www.w3.org/2000/svg" width="14" height="24" viewBox="0 0 14 24">
    <defs>
        <linearGradient id="a" x1="100%" x2="0%" y1="50%" y2="50%">
            <stop offset="0%" stop-color="#FE6F41"/>
            <stop offset="100%" stop-color="#FFCD78"/>
        </linearGradient>
    </defs>
    <path fill="url(#a)" fill-rule="nonzero" d="M37 20a2 2 0 0 0-2-2H25a2 2 0 0 0-2 2v20a2 2 0 0 0 2 2h10a2 2 0 0 0 2-2V20zm-8.5 0h3a.5.5 0 0 1 0 1h-3a.5.5 0 0 1 0-1zM30 40a1 1 0 1 1 0-2 1 1 0 0 1 0 2zm5-3H25V22.976h10V37z" transform="translate(-23 -18)"/>
</svg>
